…
  - 다변량분산분석에 사용할 수 있는 검정통계량은 네 가지이다. (필라이 대각합, 윌크스 람다, 호텔링 대각합, 로이의
    최대근). 그 검정 결과가 유의하면 종속변수에 대한 그룹들의 차이가 유의한 것이다.

  - 다변량 분석 이후에 일변량분산분석으로 결과를 좀 더 분석할 수 있다. 더 나아가서, 각 분산분석을 대비를 이용해서 좀 더
    분석할 수도 있다.

#### 강건한 다변량분산분석

``` r
ocdData %>% as_tibble()
```

    ## # A tibble: 30 x 3
    ##    Group Actions Thoughts
    ##    <fct>   <int>    <int>
    ##  1 CBT         5       14
    ##  2 CBT         5       11
    ##  3 CBT         4       16
    ##  4 CBT         4       13
    ##  5 CBT         5       12
    ##  6 CBT         3       14
    ##  7 CBT         7       12
    ##  8 CBT         6       15
    ##  9 CBT         6       16
    ## 10 CBT         4       11
    ## # ... with 20 more rows
…
