…
``` r
ocdData %>%
  as_tibble() %>%
  mutate(actions_total_actions_mean = Actions - mean(Actions)) %>%
  mutate(actions_total_actions_mean = round(actions_total_actions_mean, 2)) %>%
  mutate(thoughts_total_thoughts_mean = Thoughts - mean(Thoughts)) %>%
  mutate(thoughts_total_thoughts_mean = round(thoughts_total_thoughts_mean, 2)) %>%
  mutate(d_1_d_2 = actions_total_actions_mean * thoughts_total_thoughts_mean) %>%
  mutate(d_1_d_2 = round(d_1_d_2, 2)) -> ocdDatas_cp_total

ocdDatas_cp_total
```

    ## # A tibble: 30 x 6
    ##    Group Actions Thoughts actions_total_actio~ thoughts_total_thou~ d_1_d_2
    ##    <fct>   <int>    <int>                <dbl>                <dbl>   <dbl>
    ##  1 CBT         5       14                 0.47                -0.53   -0.25
    ##  2 CBT         5       11                 0.47                -3.53   -1.66
    ##  3 CBT         4       16                -0.53                 1.47   -0.78
    ##  4 CBT         4       13                -0.53                -1.53    0.81
    ##  5 CBT         5       12                 0.47                -2.53   -1.19
    ##  6 CBT         3       14                -1.53                -0.53    0.81
    ##  7 CBT         7       12                 2.47                -2.53   -6.25
    ##  8 CBT         6       15                 1.47                 0.47    0.69
    ##  9 CBT         6       16                 1.47                 1.47    2.16
    ## 10 CBT         4       11                -0.53                -3.53    1.87
    ## # ... with 20 more rows
…
