…
#### 성장모형

백혈구 수, 방사성 붕괴, 이익의 변화율 등

#### 성장곡선(다항식)

#### 예제 하나: 밀월기

``` r
satisfactionData <- read.delim('Honeymoon Period.dat', header = T) %>% as_tibble()
satisfactionData
```

    ## # A tibble: 115 x 6
    ##    Person Satisfaction_Ba~ Satisfaction_6_~ Satisfaction_12~
    ##     <int>            <int>            <int>            <int>
    ##  1      1                6                6                5
    ##  2      2                7                7                8
    ##  3      3                4                6                2
    ##  4      4                6                9                4
    ##  5      5                6                7                6
    ##  6      6                5               10                4
    ##  7      7                6                6                4
    ##  8      8                2                5                4
    ##  9      9               10                9                5
    ## 10     10               10               10               10
    ## # ... with 105 more rows, and 2 more variables:
    ## #   Satisfaction_18_Months <int>, Gender <int>
…
